Kvantitativa forskningsprocessen & beskrivande statistik
…
__Problematiska__ vid __numeriska variabler__.

---

# Absolut frekvens

.pull-left[

]

.pull-right[

```
## # A tibble: 27 × 2
##    Ålder     n
##    <int> <int>
##  1    13     1
##  2    16     2
##  3    17     1
##  4    18     4
##  5    19     7
##  6    20    14
##  7    21    28
##  8    22    38
##  9    23    41
## 10    24    57
## 11    25    69
## 12    26    80
## 13    27    98
## 14    28    96
## 15    29   100
## 16    30    90
## 17    31    71
## 18    32    60
## 19    33    57
## 20    34    25
## 21    35    25
## 22    36    16
## 23    37    13
## 24    38     3
## # … with 3 more rows
```
…
